<svg xmlns="http://www.w3.org/2000/svg" width="1184.97" height="1185" viewBox="0 0 1184.97 1185">
  <defs>
    <style>
      .cls-1 {
        fill: #004f78;
        stroke: #fff;
        stroke-linecap: round;
        stroke-width: 30px;
        fill-rule: evenodd;
      }
    </style>
  </defs>
  <path id="Path_11140" data-name="Path 11140" class="cls-1" d="M0,426.387v743.6L1169.95,888.763,962.383,0.828H0V426.387Z"/>
</svg>
